Mini Project 3 by Maria Alexandra Jerez – STA 9750 2024 Submission Material
…
For our second task, we will be auto downloading congressional shapefiles from Census Beaurue. Here is the code used to accomplished this task:

Initial Exploration of Vote Count Data

For our third task we will be exploring the vote count data and answering a few questions below using the [MIT Election Data Science Lab] (https://electionlab.mit.edu/) data sources.

Which states have gained and lost the most seats in the US House of Representatives between 1976 and 2022? [House data source](https://dataverse.harvard.edu/dataset.xhtml?persistentId=doi:10.7910/DVN/IG0UN2)

If we take the argument that an increase in voters increases house seats. Then we can conclude, from our data, that no state has lost seats from 1976-2022, as total votes for each state has increased over time. Below we will see a graph of such results for all states, with the exception of West Virginia, where we see a stale pattern through the years.

print(house_seats)

# A tibble: 32,452 × 6
# Groups:   year, state [1,201]
    year state   party         candidate                 district candidatevotes
   <int> <chr>   <chr>         <chr>                        <int>          <int>
 1  1976 ALABAMA "DEMOCRAT"    "BILL DAVENPORT"                 1          58906
 2  1976 ALABAMA "REPUBLICAN"  "JACK EDWARDS"                   1          98257
 3  1976 ALABAMA ""            "WRITEIN"                        1              7
 4  1976 ALABAMA "DEMOCRAT"    "J CAROLE KEAHEY"                2          66288
 5  1976 ALABAMA "REPUBLICAN"  "WILLIAM L \"BILL\" DICK…        2          90069
 6  1976 ALABAMA ""            "WRITEIN"                        2              5
 7  1976 ALABAMA "DEMOCRAT"    "BILL NICHOLS"                   3         106935
 8  1976 ALABAMA "PROHIBITION" "OGBURN GARDNER"                 3           1111
 9  1976 ALABAMA ""            "WRITEIN"                        3              2
10  1976 ALABAMA "REPUBLICAN"  "LEONARD WILSON"                 4          34531
# ℹ 32,442 more rows
…
